These are from a different game than the graphs in the included images

Round data: {'round': 4, 'playerName': 'Player 1', 'playerPopularities': [{'name': 'Player 0', 'popularity': 122}, {'name': 'Player 1', 'popularity': 96}, {'name': 'Player 2', 'popularity': 127}, {'name': 'Player 3', 'popularity': 211}, {'name': 'Player 4', 'popularity': 64}, {'name': 'Player 5', 'popularity': 116}], 'exchanges': {'received': [{'name': 'Player 0', 'amount': 0.0}, {'name': 'Player 1', 'amount': 2.0}, {'name': 'Player 2', 'amount': 0.0}, {'name': 'Player 3', 'amount': 0.0}, {'name': 'Player 4', 'amount': 0.0}, {'name': 'Player 5', 'amount': 0.0}], 'given': [{'name': 'Player 0', 'amount': 2.0}, {'name': 'Player 1', 'amount': 2.0}, {'name': 'Player 2', 'amount': 2.0}, {'name': 'Player 3', 'amount': 2.0}, {'name': 'Player 4', 'amount': 2.0}, {'name': 'Player 5', 'amount': 2.0}]}, 'numTokens': 12, 'timeRemaining': 29999.000072479248, 'availableGraphs': 'None', 'gameStatus': 'started'}

Line graph: [{'roundNum': 1, 'data': [{'name': 'Player 0', 'value': 100.0}, {'name': 'Player 1', 'value': 100.0}, {'name': 'Player 2', 'value': 100.0}, {'name': 'Player 3', 'value': 100.0}, {'name': 'Player 4', 'value': 100.0}, {'name': 'Player 5', 'value': 100.0}]}, {'roundNum': 2, 'data': [{'name': 'Player 0', 'value': 112.66666666666666}, {'name': 'Player 1', 'value': 111.33333333333333}, {'name': 'Player 2', 'value': 140.66666666666666}, {'name': 'Player 3', 'value': 112.66666666666666}, {'name': 'Player 4', 'value': 84.66666666666667}, {'name': 'Player 5', 'value': 84.66666666666667}]}, {'roundNum': 3, 'data': [{'name': 'Player 0', 'value': 94.57600000000001}, {'name': 'Player 1', 'value': 117.26933333333334}, {'name': 'Player 2', 'value': 149.23199999999997}, {'name': 'Player 3', 'value': 143.952}, {'name': 'Player 4', 'value': 73.03466666666667}, {'name': 'Player 5', 'value': 112.42133333333332}]}, {'roundNum': 4, 'data': [{'name': 'Player 0', 'value': 122.49694008888889}, {'name': 'Player 1', 'value': 96.3338225777778}, {'name': 'Player 2', 'value': 126.58980835555558}, {'name': 'Player 3', 'value': 210.67294862222224}, {'name': 'Player 4', 'value': 64.00002702222223}, {'name': 'Player 5', 'value': 116.4387256888889}]}]

Tornado graph: [{'playerName': 'Player 0', 'popularity': 122.49694008888889, 'playerData': [{'name': 'Player 0', 'value': 0.0}, {'name': 'Player 1', 'value': 17.677004800000002}, {'name': 'Player 2', 'value': 24.224255999999997}, {'name': 'Player 3', 'value': 26.48128}, {'name': 'Player 4', 'value': 0.0}, {'name': 'Player 5', 'value': 0.0}]}, {'playerName': 'Player 1', 'popularity': 96.3338225777778, 'playerData': [{'name': 'Player 0', 'value': 12.800027022222222}, {'name': 'Player 1', 'value': 9.142876444444447}, {'name': 'Player 2', 'value': 12.800027022222222}, {'name': 'Player 3', 'value': 12.800027022222222}, {'name': 'Player 4', 'value': 12.800027022222222}, {'name': 'Player 5', 'value': 12.800027022222222}]}, {'playerName': 'Player 2', 'popularity': 126.58980835555558, 'playerData': [{'name': 'Player 0', 'value': 41.784959999999984}, {'name': 'Player 1', 'value': 0.0}, {'name': 'Player 2', 'value': 0.0}, {'name': 'Player 3', 'value': 20.125593600000002}, {'name': 'Player 4', 'value': 0.0}, {'name': 'Player 5', 'value': 31.988991999999996}]}, {'playerName': 'Player 3', 'popularity': 210.67294862222224, 'playerData': [{'name': 'Player 0', 'value': 0.0}, {'name': 'Player 1', 'value': 0.0}, {'name': 'Player 2', 'value': 19.8890496}, {'name': 'Player 3', 'value': 48.06848}, {'name': 'Player 4', 'value': 0.0}, {'name': 'Player 5', 'value': 0.0}]}, {'playerName': 'Player 4', 'popularity': 64.00002702222223, 'playerData': [{'name': 'Player 0', 'value': 16.711953066666666}, {'name': 'Player 1', 'value': 18.313941333333332}, {'name': 'Player 2', 'value': 0.0}, {'name': 'Player 3', 'value': 0.0}, {'name': 'Player 4', 'value': 0.0}, {'name': 'Player 5', 'value': 20.449706666666664}]}, {'playerName': 'Player 5', 'popularity': 116.4387256888889, 'playerData': [{'name': 'Player 0', 'value': 0.0}, {'name': 'Player 1', 'value': 0.0}, {'name': 'Player 2', 'value': 18.476475733333334}, {'name': 'Player 3', 'value': 51.997568}, {'name': 'Player 4', 'value': 0.0}, {'name': 'Player 5', 'value': 0.0}]}]

Tornado matrix: [[ 0.         17.6770048  24.224256   26.48128     0.          0.        ]
 [12.80002702  9.14287644 12.80002702 12.80002702 12.80002702 12.80002702]
 [41.78496     0.          0.         20.1255936   0.         31.988992  ]
 [ 0.          0.         19.8890496  48.06848     0.          0.        ]
 [16.71195307 18.31394133  0.          0.          0.         20.44970667]
 [ 0.          0.         18.47647573 51.997568    0.          0.        ]]

Network graph: {'nodeData': [{'name': 'Player 0', 'x': 0.6186443709925011, 'y': 0.3898021634604052}, {'name': 'Player 1', 'x': -0.16335923304776367, 'y': 1.1105709924002785}, {'name': 'Player 2', 'x': 0.9474938310676517, 'y': -0.32605133169686795}, {'name': 'Player 3', 'x': -0.5252863857235708, 'y': -0.5366431600933071}, {'name': 'Player 4', 'x': -1.1026934958683206, 'y': 0.33565083209760216}, {'name': 'Player 5', 'x': 0.173707673833399, 'y': -0.7261486906583733}], 'edgeData': [{'n1': 'Player 0', 'n2': 'Player 0', 'value': 0.0}, {'n1': 'Player 0', 'n2': 'Player 1', 'value': 0.4617087380983624}, {'n1': 'Player 0', 'n2': 'Player 2', 'value': 1.0}, {'n1': 'Player 0', 'n2': 'Player 3', 'value': 0.4011754964640091}, {'n1': 'Player 0', 'n2': 'Player 4', 'value': 0.2531760575169787}, {'n1': 'Player 0', 'n2': 'Player 5', 'value': 0.0}, {'n1': 'Player 1', 'n2': 'Player 1', 'value': 0.0}, {'n1': 'Player 1', 'n2': 'Player 2', 'value': 0.19391272609906815}, {'n1': 'Player 1', 'n2': 'Player 3', 'value': 0.19391272609906815}, {'n1': 'Player 1', 'n2': 'Player 4', 'value': 0.4713579442536564}, {'n1': 'Player 1', 'n2': 'Player 5', 'value': 0.19391272609906815}, {'n1': 'Player 2', 'n2': 'Player 2', 'value': 0.0}, {'n1': 'Player 2', 'n2': 'Player 3', 'value': 0.6061978254672804}, {'n1': 'Player 2', 'n2': 'Player 4', 'value': 0.0}, {'n1': 'Player 2', 'n2': 'Player 5', 'value': 0.7645215439815759}, {'n1': 'Player 3', 'n2': 'Player 3', 'value': 0.0}, {'n1': 'Player 3', 'n2': 'Player 4', 'value': 0.0}, {'n1': 'Player 3', 'n2': 'Player 5', 'value': 0.7877319433698473}, {'n1': 'Player 4', 'n2': 'Player 4', 'value': 0.0}, {'n1': 'Player 4', 'n2': 'Player 5', 'value': 0.30980078094953695}, {'n1': 'Player 5', 'n2': 'Player 5', 'value': 0.0}]}